Quantitative social science with R
…
---
## Data manipulation: tidyr

```r
d1 %>% gather(age, number, `All Ages`: `Aged 85+`)
```

```
## # A tibble: 1,956 x 4
##    `Local Authority` oslaua    age      number
##    <chr>             <chr>     <chr>     <dbl>
##  1 Babergh           E07000200 All Ages  88845
##  2 Basildon          E07000066 All Ages 180521
##  3 Bedford           E06000055 All Ages 163924
##  4 Braintree         E07000067 All Ages 149985
##  5 Breckland         E07000143 All Ages 133986
##  6 Brentwood         E07000068 All Ages  75645
##  7 Broadland         E07000144 All Ages 125961
##  8 Broxbourne        E07000095 All Ages  95748
##  9 Cambridge         E07000008 All Ages 128515
## 10 Castle Point      E07000069 All Ages  88907
## # … with 1,946 more rows
```

---
## Data manipulation: tidyr

* `tidyr` and `dplyr`

```r
 d1 %>% gather(age, number, `All Ages`: `Aged 85+`) %>%
  arrange(`Local Authority`)
```

```
## # A tibble: 1,956 x 4
##    `Local Authority` oslaua    age        number
##    <chr>             <chr>     <chr>       <dbl>
##  1 Adur              E07000223 All Ages    63176
##  2 Adur              E07000223 Aged 65-69   4310
##  3 Adur              E07000223 Aged 70-74   3283
##  4 Adur              E07000223 Aged 75-79   2767
##  5 Adur              E07000223 Aged 80-84   2086
##  6 Adur              E07000223 Aged 85+     2161
##  7 Allerdale         E07000026 All Ages    96471
##  8 Allerdale         E07000026 Aged 65-69   7014
##  9 Allerdale         E07000026 Aged 70-74   5275
## 10 Allerdale         E07000026 Aged 75-79   4138
## # … with 1,946 more rows
```
…
